[gd_resource type="Resource" load_steps=7 format=2]

[ext_resource path="res://Backend/Enums/Types/Scripts/typing.gd" type="Script" id=1]
[ext_resource path="res://Backend/Enums/Types/Icons/dark_icon.png" type="Texture" id=2]
[ext_resource path="res://Backend/Enums/Types/Ghost.tres" type="Resource" id=3]
[ext_resource path="res://Backend/Enums/Types/Psychic.tres" type="Resource" id=4]
[ext_resource path="res://Backend/Enums/Types/Fighting.tres" type="Resource" id=5]
[ext_resource path="res://Backend/Enums/Types/Fairy.tres" type="Resource" id=6]


[resource]
script = ExtResource( 1 )
id = 17
name = ""
damage_relations = {
"double_damage_to": [ ExtResource( 3 ), ExtResource( 4 ) ],
"half_damage_to": [ ExtResource( 5 ), ExtResource( 6 ), null ],
"no_damage_to": [  ]
}
icon = ExtResource( 2 )
