[gd_resource type="Resource" load_steps=7 format=2]

[ext_resource path="res://Backend/Enums/Types/Scripts/typing.gd" type="Script" id=1]
[ext_resource path="res://Backend/Enums/Types/Icons/ghost_icon.png" type="Texture" id=2]
[ext_resource path="res://Backend/Enums/Types/Dark.tres" type="Resource" id=3]
[ext_resource path="res://Backend/Enums/Types/Normal.tres" type="Resource" id=4]
[ext_resource path="res://Backend/Enums/Types/Psychic.tres" type="Resource" id=5]
[ext_resource path="res://Backend/Enums/Types/Fairy.tres" type="Resource" id=6]


[resource]
script = ExtResource( 1 )
id = 7
name = ""
damage_relations = {
"double_damage_to": [ null, ExtResource( 5 ) ],
"half_damage_to": [ ExtResource( 6 ), ExtResource( 3 ) ],
"no_damage_to": [ ExtResource( 4 ) ]
}
icon = ExtResource( 2 )
