[gd_resource type="Resource" load_steps=6 format=2]

[ext_resource path="res://Backend/Enums/Types/Scripts/typing.gd" type="Script" id=1]
[ext_resource path="res://Backend/Enums/Types/Icons/normal_icon.png" type="Texture" id=2]
[ext_resource path="res://Backend/Enums/Types/Steel.tres" type="Resource" id=3]
[ext_resource path="res://Backend/Enums/Types/Ghost.tres" type="Resource" id=4]
[ext_resource path="res://Backend/Enums/Types/Rock.tres" type="Resource" id=5]


[resource]
script = ExtResource( 1 )
id = 0
name = ""
damage_relations = {
"double_damage_to": [  ],
"half_damage_to": [ ExtResource( 5 ), ExtResource( 3 ) ],
"no_damage_to": [ ExtResource( 4 ) ]
}
icon = ExtResource( 2 )
