# Created with Spiky's DS Map Editor 1.8.1.0
mtllib house.mtl
o polygon0
g polygon0
usemtl t1_s01_1
v 0 3.906982421875 1.555419921875
v -0.25 3.697265625 1.555419921875
v 0 2.689208984375 1.555419921875
v -0.25 2.9384765625 1.555419921875
v -2.375 2.689208984375 1.555419921875
v -1.25 2.9384765625 1.555419921875
v -1.381591796875 3.906982421875 1.555419921875
v -1.25 3.697265625 1.555419921875
v 0 3.906982421875 1.555419921875
v -0.25 3.697265625 1.555419921875
v 2.375 2.34619140625 -1.53076171875
v 2.375 2.689208984375 -1.53076171875
v 2.375 2.34619140625 -0.870849609375
v 2.375 2.689208984375 -0.870849609375
v 2.375 2.34619140625 0.93994140625
v 2.375 2.689208984375 0.93994140625
v 2.375 2.34619140625 1.555419921875
v 2.375 2.689208984375 1.555419921875
v 2.375 2.34619140625 1.699951171875
v 2.375 2.689208984375 1.699951171875
v -2.375 2.34619140625 1.699951171875
v -2.375 2.689208984375 1.699951171875
v -2.375 2.34619140625 1.555419921875
v -2.375 2.689208984375 1.555419921875
v -2.375 2.34619140625 0.93994140625
v -2.375 2.689208984375 0.93994140625
v -2.375 2.34619140625 -0.870849609375
v -2.375 2.689208984375 -0.870849609375
v -2.375 2.34619140625 -1.53076171875
v -2.375 2.689208984375 -1.53076171875
v 0 2.34619140625 1.555419921875
v 0.276611328125 2.03125 1.555419921875
v 1.840576171875 2.34619140625 1.555419921875
v 1.56494140625 2.03125 1.555419921875
v 1.840576171875 0.682861328125 1.555419921875
v 1.56494140625 0.9326171875 1.555419921875
v -0.00048828125 0.682861328125 1.555419921875
v 0.28076171875 0.9326171875 1.555419921875
v 0 2.34619140625 1.555419921875
v 0.276611328125 2.03125 1.555419921875
v 1.381591796875 3.906982421875 1.555419921875
v 1.25 3.697265625 1.555419921875
v 2.375 2.689208984375 1.555419921875
v 1.25 2.9384765625 1.555419921875
v 0 2.689208984375 1.555419921875
v 0.25 2.9384765625 1.555419921875
v 0 3.906982421875 1.555419921875
v 0.25 3.697265625 1.555419921875
v 1.381591796875 3.906982421875 1.555419921875
v 1.25 3.697265625 1.555419921875
v -1.85009765625 0.682861328125 1.555419921875
v -1.699951171875 0.682861328125 1.555419921875
v -1.85009765625 2.34619140625 1.555419921875
v -1.699951171875 2.00537109375 1.555419921875
v 0 2.34619140625 1.555419921875
v -0.35107421875 2.00537109375 1.555419921875
v -0.00048828125 0.682861328125 1.555419921875
v -0.35107421875 0.682861328125 1.555419921875
v 1.1044921875 4.2587890625 1.699951171875
v 1.1044921875 4.2587890625 1.555419921875
v 0 4.2587890625 1.699951171875
v 0 4.2587890625 1.555419921875
v -1.1044921875 4.2587890625 1.699951171875
v -1.1044921875 4.2587890625 1.555419921875
v 1.381591796875 3.906982421875 1.699951171875
v 1.1044921875 4.2587890625 1.699951171875
v 0 3.906982421875 1.699951171875
v 0 4.2587890625 1.699951171875
v -1.381591796875 3.906982421875 1.699951171875
v -1.1044921875 4.2587890625 1.699951171875
v 1.1044921875 4.2587890625 1.555419921875
v 0.234130859375 5.3642578125 1.555419921875
v 0 4.2587890625 1.555419921875
v 0 5.3642578125 1.555419921875
v -1.1044921875 4.2587890625 1.555419921875
v -0.234130859375 5.3642578125 1.555419921875
v 1.56494140625 0.9326171875 1.555419921875
v 1.56494140625 2.03125 1.555419921875
v 1.53369140625 2 1.6181640625
v 1.53369140625 0.9638671875 1.6181640625
v 0.276611328125 2.03125 1.555419921875
v 0.28076171875 0.9326171875 1.555419921875
v 0.31201171875 0.9638671875 1.6181640625
v 0.307861328125 2 1.6181640625
v 1.840576171875 2.34619140625 1.555419921875
v 1.840576171875 0.682861328125 1.555419921875
v 2.340576171875 0.682861328125 1.555419921875
v 2.340576171875 2.34619140625 1.555419921875
v -1.85009765625 2.34619140625 1.555419921875
v -2.340576171875 2.34619140625 1.555419921875
v -2.340576171875 0.682861328125 1.555419921875
v -1.85009765625 0.682861328125 1.555419921875
v -2.340576171875 0.682861328125 -0.870849609375
v -2.340576171875 2.34619140625 -0.870849609375
v -2.340576171875 2.34619140625 -1.53076171875
v -2.340576171875 0.682861328125 -1.53076171875
v 2.340576171875 2.34619140625 -0.870849609375
v 2.340576171875 0.682861328125 -0.870849609375
v 2.340576171875 0.682861328125 -1.53076171875
v 2.340576171875 2.34619140625 -1.53076171875
v -2.340576171875 2.34619140625 0.93994140625
v -2.340576171875 0.682861328125 0.93994140625
v -2.340576171875 0.682861328125 1.555419921875
v -2.340576171875 2.34619140625 1.555419921875
v 2.340576171875 2.34619140625 0.93994140625
v 2.340576171875 0.682861328125 0.93994140625
v 2.340576171875 0.682861328125 -0.870849609375
v 2.340576171875 2.34619140625 -0.870849609375
v -2.340576171875 2.34619140625 0.93994140625
v -2.340576171875 2.34619140625 -0.870849609375
v -2.340576171875 0.682861328125 -0.870849609375
v -2.340576171875 0.682861328125 0.93994140625
v 1.21875 3.666015625 1.6181640625
v 0.28125 3.666015625 1.6181640625
v 0.28125 2.9697265625 1.6181640625
v 1.21875 2.9697265625 1.6181640625
v 1.25 2.9384765625 1.555419921875
v 1.25 3.697265625 1.555419921875
v 1.21875 3.666015625 1.6181640625
v 1.21875 2.9697265625 1.6181640625
v 2.375 2.689208984375 1.555419921875
v 0 2.689208984375 1.555419921875
v 0 2.689208984375 1.699951171875
v 2.375 2.689208984375 1.699951171875
v 0 2.689208984375 1.555419921875
v -2.375 2.689208984375 1.555419921875
v -2.375 2.689208984375 1.699951171875
v 0 2.689208984375 1.699951171875
v 0.25 3.697265625 1.555419921875
v 0.25 2.9384765625 1.555419921875
v 0.28125 2.9697265625 1.6181640625
v 0.28125 3.666015625 1.6181640625
v 1.25 3.697265625 1.555419921875
v 0.25 3.697265625 1.555419921875
v 0.28125 3.666015625 1.6181640625
v 1.21875 3.666015625 1.6181640625
v 2.340576171875 0.682861328125 1.555419921875
v 2.340576171875 0.682861328125 0.93994140625
v 2.340576171875 2.34619140625 0.93994140625
v 2.340576171875 2.34619140625 1.555419921875
v -0.25 2.9384765625 1.555419921875
v -0.25 3.697265625 1.555419921875
v -0.28125 3.666015625 1.6181640625
v -0.28125 2.9697265625 1.6181640625
v 0.307861328125 2 1.6181640625
v 0.31201171875 0.9638671875 1.6181640625
v 1.53369140625 0.9638671875 1.6181640625
v 1.53369140625 2 1.6181640625
v -0.234130859375 5.767333984375 0.01220703125
v -2.7568359375 2.708984375 0.01220703125
v -2.7568359375 2.708984375 1.84228515625
v -0.234130859375 5.767333984375 1.84228515625
v -0.234130859375 5.767333984375 -1.737548828125
v -2.7568359375 2.708984375 -1.737548828125
v -2.7568359375 2.708984375 0.01220703125
v -0.234130859375 5.767333984375 0.01220703125
v 0.234130859375 5.767333984375 -1.737548828125
v 0.234130859375 5.767333984375 0.01220703125
v 2.74365234375 2.708984375 0.01220703125
v 2.74365234375 2.708984375 -1.737548828125
v 0.234130859375 5.767333984375 -1.737548828125
v -0.234130859375 5.767333984375 -1.737548828125
v -0.234130859375 5.767333984375 0.01220703125
v 0.234130859375 5.767333984375 0.01220703125
v 0.234130859375 5.767333984375 0.01220703125
v 0.234130859375 5.767333984375 1.84228515625
v 2.74365234375 2.708984375 1.84228515625
v 2.74365234375 2.708984375 0.01220703125
v -0.234130859375 5.767333984375 0.01220703125
v -0.234130859375 5.767333984375 1.84228515625
v 0.234130859375 5.767333984375 1.84228515625
v 0.234130859375 5.767333984375 0.01220703125
v -1.25 3.697265625 1.555419921875
v -1.25 2.9384765625 1.555419921875
v -1.21875 2.9697265625 1.6181640625
v -1.21875 3.666015625 1.6181640625
v 0 2.689208984375 1.699951171875
v 0 2.34619140625 1.699951171875
v 2.375 2.34619140625 1.699951171875
v 2.375 2.689208984375 1.699951171875
v -2.375 2.689208984375 1.699951171875
v -2.375 2.34619140625 1.699951171875
v 0 2.34619140625 1.699951171875
v 0 2.689208984375 1.699951171875
v -0.25 3.697265625 1.555419921875
v -1.25 3.697265625 1.555419921875
v -1.21875 3.666015625 1.6181640625
v -0.28125 3.666015625 1.6181640625
v 1.56494140625 2.03125 1.555419921875
v 0.276611328125 2.03125 1.555419921875
v 0.307861328125 2 1.6181640625
v 1.53369140625 2 1.6181640625
v -0.28125 3.666015625 1.6181640625
v -1.21875 3.666015625 1.6181640625
v -1.21875 2.9697265625 1.6181640625
v -0.28125 2.9697265625 1.6181640625
vt 0.609375 -0.640625
vt 0.53125 -0.6875
vt 0.609375 -0.984375
vt 0.53125 -0.9375
vt 0.015625 -0.984375
vt 0.296875 -0.9375
vt 0.125 -0.640625
vt 0.296875 -0.6875
vt 0.609375 -0.640625
vt 0.53125 -0.6875
vt -0.0771484375 -0.802734375
vt -0.0380859375 -0.802734375
vt -0.0771484375 -0.7529296875
vt -0.0380859375 -0.7529296875
vt -0.0771484375 -0.578125
vt -0.0380859375 -0.578125
vt -0.0771484375 -0.5322265625
vt -0.0380859375 -0.5322265625
vt -0.0771484375 -0.5185546875
vt -0.0380859375 -0.5185546875
vt -0.08203125 -0.7998046875
vt -0.04296875 -0.7998046875
vt -0.08203125 -0.7861328125
vt -0.04296875 -0.7861328125
vt -0.08203125 -0.740234375
vt -0.04296875 -0.740234375
vt -0.08203125 -0.5654296875
vt -0.04296875 -0.5654296875
vt -0.08203125 -0.515625
vt -0.04296875 -0.515625
vt 0.640625 -0.140625
vt 0.671875 -0.234375
vt 0.734375 -0.140625
vt 0.703125 -0.234375
vt 0.734375 -0.609375
vt 0.703125 -0.53125
vt 0.640625 -0.609375
vt 0.671875 -0.53125
vt 0.640625 -0.140625
vt 0.671875 -0.234375
vt 0.125 -0.640625
vt 0.296875 -0.6875
vt 0.015625 -0.984375
vt 0.296875 -0.9375
vt 0.609375 -0.984375
vt 0.53125 -0.9375
vt 0.609375 -0.640625
vt 0.53125 -0.6875
vt 0.125 -0.640625
vt 0.296875 -0.6875
vt 0.015625 -0.609375
vt 0.03125 -0.609375
vt 0.015625 -0.140625
vt 0.03125 -0.234375
vt 0.109375 -0.140625
vt 0.09375 -0.234375
vt 0.109375 -0.609375
vt 0.09375 -0.609375
vt 0.984375 -1.984375
vt 0.890625 -1.984375
vt 0.984375 -1.515625
vt 0.890625 -1.515625
vt 0.984375 -1.984375
vt 0.890625 -1.984375
vt 0.984375 -0.984375
vt 0.890625 -0.890625
vt 0.984375 -0.515625
vt 0.890625 -0.515625
vt 0.984375 -0.984375
vt 0.890625 -0.890625
vt 0.640625 -0.984375
vt 0.796875 -0.640625
vt 0.859375 -0.984375
vt 0.859375 -0.640625
vt 0.640625 -0.984375
vt 0.796875 -0.640625
vt 0.859375 -0.609375
vt 0.859375 -0.515625
vt 0.765625 -0.515625
vt 0.765625 -0.609375
vt 0.765625 -0.515625
vt 0.765625 -0.609375
vt 0.859375 -0.609375
vt 0.859375 -0.515625
vt 0.765625 -0.140625
vt 0.765625 -0.484375
vt 0.953125 -0.484375
vt 0.953125 -0.140625
vt 0.953125 -0.140625
vt 0.765625 -0.140625
vt 0.765625 -0.484375
vt 0.953125 -0.484375
vt 0.953125 -0.484375
vt 0.953125 -0.140625
vt 0.765625 -0.140625
vt 0.765625 -0.484375
vt 0.765625 -0.140625
vt 0.765625 -0.484375
vt 0.953125 -0.484375
vt 0.953125 -0.140625
vt 0.765625 -0.140625
vt 0.765625 -0.484375
vt 0.953125 -0.484375
vt 0.953125 -0.140625
vt 0.09375 -1.140625
vt 0.09375 -1.609375
vt 0.65625 -1.609375
vt 0.65625 -1.140625
vt 0.65625 -1.140625
vt 0.09375 -1.140625
vt 0.09375 -1.609375
vt 0.65625 -1.609375
vt 0.546875 -0.234375
vt 0.203125 -0.234375
vt 0.203125 -0.53125
vt 0.546875 -0.53125
vt 0.859375 -0.609375
vt 0.859375 -0.515625
vt 0.765625 -0.515625
vt 0.765625 -0.609375
vt 0.955078125 -0.7138671875
vt 0.955078125 -0.51953125
vt 0.9404296875 -0.51953125
vt 0.9404296875 -0.7138671875
vt 0.94921875 -0.7109375
vt 0.94921875 -0.5166015625
vt 0.935546875 -0.5166015625
vt 0.935546875 -0.7109375
vt 0.765625 -0.515625
vt 0.765625 -0.609375
vt 0.859375 -0.609375
vt 0.859375 -0.515625
vt 0.859375 -0.609375
vt 0.859375 -0.515625
vt 0.765625 -0.515625
vt 0.765625 -0.609375
vt 0.765625 -0.484375
vt 0.953125 -0.484375
vt 0.953125 -0.140625
vt 0.765625 -0.140625
vt 0.859375 -0.609375
vt 0.859375 -0.515625
vt 0.765625 -0.515625
vt 0.765625 -0.609375
vt 0.203125 -0.234375
vt 0.203125 -0.53125
vt 0.546875 -0.53125
vt 0.546875 -0.234375
vt 0.015625 -0.109375
vt 0.859375 -0.109375
vt 0.859375 -0.015625
vt 0.015625 -0.015625
vt 0.015625 -0.109375
vt 0.859375 -0.109375
vt 0.859375 -0.015625
vt 0.015625 -0.015625
vt 0.015625 -0.015625
vt 0.015625 -0.109375
vt 0.859375 -0.109375
vt 0.859375 -0.015625
vt 0.984375 -0.109375
vt 0.984375 -0.015625
vt 0.890625 -0.015625
vt 0.890625 -0.109375
vt 0.015625 -0.015625
vt 0.015625 -0.109375
vt 0.859375 -0.109375
vt 0.859375 -0.015625
vt 0.984375 -0.015625
vt 0.890625 -0.015625
vt 0.890625 -0.109375
vt 0.984375 -0.109375
vt 0.765625 -0.515625
vt 0.765625 -0.609375
vt 0.859375 -0.609375
vt 0.859375 -0.515625
vt 0.9697265625 -0.525390625
vt 0.9306640625 -0.525390625
vt 0.9306640625 -0.720703125
vt 0.9697265625 -0.720703125
vt 0.9287109375 -0.72265625
vt 0.9677734375 -0.72265625
vt 0.9677734375 -0.52734375
vt 0.9287109375 -0.52734375
vt 0.859375 -0.609375
vt 0.859375 -0.515625
vt 0.765625 -0.515625
vt 0.765625 -0.609375
vt 0.859375 -0.609375
vt 0.859375 -0.515625
vt 0.765625 -0.515625
vt 0.765625 -0.609375
vt 0.546875 -0.234375
vt 0.203125 -0.234375
vt 0.203125 -0.53125
vt 0.546875 -0.53125
vn 0 0 0.998046875
vn 0 0 0.998046875
vn 0 0 0.998046875
vn 0 0 0.998046875
vn 0 0 0.998046875
vn 0 0 0.998046875
vn 0 0 0.998046875
vn 0 0 0.998046875
vn 0 0 0.998046875
vn 0 0 0.998046875
vn 0.998046875 0 0
vn 0.998046875 0 0
vn 0.998046875 0 0
vn 0.998046875 0 0
vn 0.998046875 0 0
vn 0.998046875 0 0
vn 0.998046875 0 0
vn 0.998046875 0 0
vn 0.998046875 0 0
vn 0.998046875 0 0
vn -1 0 0
vn -1 0 0
vn -1 0 0
vn -1 0 0
vn -1 0 0
vn -1 0 0
vn -1 0 0
vn -1 0 0
vn -1 0 0
vn -1 0 0
vn 0 0 0.998046875
vn 0 0 0.998046875
vn 0 0 0.998046875
vn 0 0 0.998046875
vn 0 0 0.998046875
vn 0 0 0.998046875
vn 0 0 0.998046875
vn 0 0 0.998046875
vn 0 0 0.998046875
vn 0 0 0.998046875
vn 0 0 0.998046875
vn 0 0 0.998046875
vn 0 0 0.998046875
vn 0 0 0.998046875
vn 0 0 0.998046875
vn 0 0 0.998046875
vn 0 0 0.998046875
vn 0 0 0.998046875
vn 0 0 0.998046875
vn 0 0 0.998046875
vn 0 0 0.998046875
vn 0 0 0.998046875
vn 0 0 0.998046875
vn 0 0 0.998046875
vn 0 0 0.998046875
vn 0 0 0.998046875
vn 0 0 0.998046875
vn 0 0 0.998046875
vn 0 0.998046875 0
vn 0 0.998046875 0
vn 0 0.998046875 0
vn 0 0.998046875 0
vn 0 0.998046875 0
vn 0 0.998046875 0
vn 0 0 0.998046875
vn 0 0 0.998046875
vn 0 0 0.998046875
vn 0 0 0.998046875
vn 0 0 0.998046875
vn 0 0 0.998046875
vn 0 0 0.998046875
vn 0 0 0.998046875
vn 0 0 0.998046875
vn 0 0 0.998046875
vn 0 0 0.998046875
vn 0 0 0.998046875
vn 0.89453125 0 0.4453125
vn 0.89453125 0 0.4453125
vn 0.89453125 0 0.4453125
vn 0.89453125 0 0.4453125
vn -0.89453125 -0.00390625 0.4453125
vn -0.89453125 -0.00390625 0.4453125
vn -0.89453125 -0.00390625 0.4453125
vn -0.89453125 -0.00390625 0.4453125
vn 0 0 0.998046875
vn 0 0 0.998046875
vn 0 0 0.998046875
vn 0 0 0.998046875
vn 0 0 0.998046875
vn 0 0 0.998046875
vn 0 0 0.998046875
vn 0 0 0.998046875
vn -1 0 0
vn -1 0 0
vn -1 0 0
vn -1 0 0
vn 0.998046875 0 0
vn 0.998046875 0 0
vn 0.998046875 0 0
vn 0.998046875 0 0
vn -1 0 0
vn -1 0 0
vn -1 0 0
vn -1 0 0
vn 0.998046875 0 0
vn 0.998046875 0 0
vn 0.998046875 0 0
vn 0.998046875 0 0
vn -1 0 0
vn -1 0 0
vn -1 0 0
vn -1 0 0
vn 0 0 0.998046875
vn 0 0 0.998046875
vn 0 0 0.998046875
vn 0 0 0.998046875
vn 0.89453125 0 0.4453125
vn 0.89453125 0 0.4453125
vn 0.89453125 0 0.4453125
vn 0.89453125 0 0.4453125
vn 0 0.998046875 0
vn 0 0.998046875 0
vn 0 0.998046875 0
vn 0 0.998046875 0
vn 0 0.998046875 0
vn 0 0.998046875 0
vn 0 0.998046875 0
vn 0 0.998046875 0
vn -0.89453125 -0.00390625 0.4453125
vn -0.89453125 -0.00390625 0.4453125
vn -0.89453125 -0.00390625 0.4453125
vn -0.89453125 -0.00390625 0.4453125
vn 0 0.89453125 0.4453125
vn 0 0.89453125 0.4453125
vn 0 0.89453125 0.4453125
vn 0 0.89453125 0.4453125
vn 0.998046875 0 0
vn 0.998046875 0 0
vn 0.998046875 0 0
vn 0.998046875 0 0
vn 0.89453125 0 0.4453125
vn 0.89453125 0 0.4453125
vn 0.89453125 0 0.4453125
vn 0.89453125 0 0.4453125
vn 0 0 0.998046875
vn 0 0 0.998046875
vn 0 0 0.998046875
vn 0 0 0.998046875
vn -0.771484375 0.63671875 0
vn -0.771484375 0.63671875 0
vn -0.771484375 0.63671875 0
vn -0.771484375 0.63671875 0
vn -0.771484375 0.63671875 0
vn -0.771484375 0.63671875 0
vn -0.771484375 0.63671875 0
vn -0.771484375 0.63671875 0
vn 0.7734375 0.634765625 0
vn 0.7734375 0.634765625 0
vn 0.7734375 0.634765625 0
vn 0.7734375 0.634765625 0
vn 0 0.998046875 0
vn 0 0.998046875 0
vn 0 0.998046875 0
vn 0 0.998046875 0
vn 0.7734375 0.634765625 0
vn 0.7734375 0.634765625 0
vn 0.7734375 0.634765625 0
vn 0.7734375 0.634765625 0
vn 0 0.998046875 0
vn 0 0.998046875 0
vn 0 0.998046875 0
vn 0 0.998046875 0
vn -0.89453125 -0.00390625 0.4453125
vn -0.89453125 -0.00390625 0.4453125
vn -0.89453125 -0.00390625 0.4453125
vn -0.89453125 -0.00390625 0.4453125
vn 0 0 0.998046875
vn 0 0 0.998046875
vn 0 0 0.998046875
vn 0 0 0.998046875
vn 0 0 0.998046875
vn 0 0 0.998046875
vn 0 0 0.998046875
vn 0 0 0.998046875
vn 0 0.89453125 0.4453125
vn 0 0.89453125 0.4453125
vn 0 0.89453125 0.4453125
vn 0 0.89453125 0.4453125
vn 0 0.89453125 0.4453125
vn 0 0.89453125 0.4453125
vn 0 0.89453125 0.4453125
vn 0 0.89453125 0.4453125
vn 0 0 0.998046875
vn 0 0 0.998046875
vn 0 0 0.998046875
vn 0 0 0.998046875
f 1/1/1 2/2/2 3/3/3
f 2/2/2 4/4/4 3/3/3
f 3/3/3 4/4/4 5/5/5
f 4/4/4 6/6/6 5/5/5
f 5/5/5 6/6/6 7/7/7
f 6/6/6 8/8/8 7/7/7
f 7/7/7 8/8/8 9/9/9
f 8/8/8 10/10/10 9/9/9
f 11/11/11 12/12/12 13/13/13
f 12/12/12 14/14/14 13/13/13
f 13/13/13 14/14/14 15/15/15
f 14/14/14 16/16/16 15/15/15
f 15/15/15 16/16/16 17/17/17
f 16/16/16 18/18/18 17/17/17
f 17/17/17 18/18/18 19/19/19
f 18/18/18 20/20/20 19/19/19
f 21/21/21 22/22/22 23/23/23
f 22/22/22 24/24/24 23/23/23
f 23/23/23 24/24/24 25/25/25
f 24/24/24 26/26/26 25/25/25
f 25/25/25 26/26/26 27/27/27
f 26/26/26 28/28/28 27/27/27
f 27/27/27 28/28/28 29/29/29
f 28/28/28 30/30/30 29/29/29
f 31/31/31 32/32/32 33/33/33
f 32/32/32 34/34/34 33/33/33
f 33/33/33 34/34/34 35/35/35
f 34/34/34 36/36/36 35/35/35
f 35/35/35 36/36/36 37/37/37
f 36/36/36 38/38/38 37/37/37
f 37/37/37 38/38/38 39/39/39
f 38/38/38 40/40/40 39/39/39
f 41/41/41 42/42/42 43/43/43
f 42/42/42 44/44/44 43/43/43
f 43/43/43 44/44/44 45/45/45
f 44/44/44 46/46/46 45/45/45
f 45/45/45 46/46/46 47/47/47
f 46/46/46 48/48/48 47/47/47
f 47/47/47 48/48/48 49/49/49
f 48/48/48 50/50/50 49/49/49
f 51/51/51 52/52/52 53/53/53
f 52/52/52 54/54/54 53/53/53
f 53/53/53 54/54/54 55/55/55
f 54/54/54 56/56/56 55/55/55
f 55/55/55 56/56/56 57/57/57
f 56/56/56 58/58/58 57/57/57
f 59/59/59 60/60/60 61/61/61
f 60/60/60 62/62/62 61/61/61
f 61/61/61 62/62/62 63/63/63
f 62/62/62 64/64/64 63/63/63
f 65/65/65 66/66/66 67/67/67
f 66/66/66 68/68/68 67/67/67
f 67/67/67 68/68/68 69/69/69
f 68/68/68 70/70/70 69/69/69
f 71/71/71 72/72/72 73/73/73
f 72/72/72 74/74/74 73/73/73
f 73/73/73 74/74/74 75/75/75
f 74/74/74 76/76/76 75/75/75
f 77/77/77 78/78/78 79/79/79
f 79/79/79 80/80/80 77/77/77
f 81/81/81 82/82/82 83/83/83
f 83/83/83 84/84/84 81/81/81
f 85/85/85 86/86/86 87/87/87
f 87/87/87 88/88/88 85/85/85
f 89/89/89 90/90/90 91/91/91
f 91/91/91 92/92/92 89/89/89
f 93/93/93 94/94/94 95/95/95
f 95/95/95 96/96/96 93/93/93
f 97/97/97 98/98/98 99/99/99
f 99/99/99 100/100/100 97/97/97
f 101/101/101 102/102/102 103/103/103
f 103/103/103 104/104/104 101/101/101
f 105/105/105 106/106/106 107/107/107
f 107/107/107 108/108/108 105/105/105
f 109/109/109 110/110/110 111/111/111
f 111/111/111 112/112/112 109/109/109
f 113/113/113 114/114/114 115/115/115
f 115/115/115 116/116/116 113/113/113
f 117/117/117 118/118/118 119/119/119
f 119/119/119 120/120/120 117/117/117
f 121/121/121 122/122/122 123/123/123
f 123/123/123 124/124/124 121/121/121
f 125/125/125 126/126/126 127/127/127
f 127/127/127 128/128/128 125/125/125
f 129/129/129 130/130/130 131/131/131
f 131/131/131 132/132/132 129/129/129
f 133/133/133 134/134/134 135/135/135
f 135/135/135 136/136/136 133/133/133
f 137/137/137 138/138/138 139/139/139
f 139/139/139 140/140/140 137/137/137
f 141/141/141 142/142/142 143/143/143
f 143/143/143 144/144/144 141/141/141
f 145/145/145 146/146/146 147/147/147
f 147/147/147 148/148/148 145/145/145
f 149/149/149 150/150/150 151/151/151
f 151/151/151 152/152/152 149/149/149
f 153/153/153 154/154/154 155/155/155
f 155/155/155 156/156/156 153/153/153
f 157/157/157 158/158/158 159/159/159
f 159/159/159 160/160/160 157/157/157
f 161/161/161 162/162/162 163/163/163
f 163/163/163 164/164/164 161/161/161
f 165/165/165 166/166/166 167/167/167
f 167/167/167 168/168/168 165/165/165
f 169/169/169 170/170/170 171/171/171
f 171/171/171 172/172/172 169/169/169
f 173/173/173 174/174/174 175/175/175
f 175/175/175 176/176/176 173/173/173
f 177/177/177 178/178/178 179/179/179
f 179/179/179 180/180/180 177/177/177
f 181/181/181 182/182/182 183/183/183
f 183/183/183 184/184/184 181/181/181
f 185/185/185 186/186/186 187/187/187
f 187/187/187 188/188/188 185/185/185
f 189/189/189 190/190/190 191/191/191
f 191/191/191 192/192/192 189/189/189
f 193/193/193 194/194/194 195/195/195
f 195/195/195 196/196/196 193/193/193
o polygon1
g polygon1
usemtl t1_s01_2
v -0.00048828125 0.682861328125 1.555419921875
v 0.00048828125 0.125 1.555419921875
v 1.840576171875 0.682861328125 1.555419921875
v 1.840576171875 0.125 1.555419921875
v 2.340576171875 0.682861328125 1.555419921875
v 2.340576171875 0.125 1.555419921875
v -2.340576171875 0.682861328125 1.555419921875
v -2.340576171875 0.125 1.555419921875
v -1.85009765625 0.682861328125 1.555419921875
v -1.85009765625 0.125 1.555419921875
v -1.699951171875 0.682861328125 1.555419921875
v -1.699951171875 0.125 1.555419921875
v -0.098388671875 4.2763671875 1.640380859375
v 0.098388671875 4.2763671875 1.640380859375
v 0.098388671875 5.414306640625 1.640380859375
v -0.098388671875 5.414306640625 1.640380859375
v -2.340576171875 0.125 -0.870849609375
v -2.340576171875 0.682861328125 -0.870849609375
v -2.340576171875 0.682861328125 -1.53076171875
v -2.340576171875 0.125 -1.53076171875
v 2.340576171875 0.682861328125 -0.870849609375
v 2.340576171875 0.125 -0.870849609375
v 2.340576171875 0.125 -1.53076171875
v 2.340576171875 0.682861328125 -1.53076171875
v -2.340576171875 0.682861328125 0.93994140625
v -2.340576171875 0.125 0.93994140625
v -2.340576171875 0.125 1.555419921875
v -2.340576171875 0.682861328125 1.555419921875
v 2.340576171875 0.682861328125 0.93994140625
v 2.340576171875 0.125 0.93994140625
v 2.340576171875 0.125 -0.870849609375
v 2.340576171875 0.682861328125 -0.870849609375
v 2.586181640625 2.942138671875 0.783935546875
v 2.586181640625 2.942138671875 -0.75927734375
v 2.586181640625 4.06884765625 -0.75927734375
v 2.586181640625 4.06884765625 0.783935546875
v 2.703369140625 4.10205078125 0.88037109375
v 2.703369140625 4.10205078125 -0.855712890625
v 2.703369140625 4.324951171875 -0.855712890625
v 2.703369140625 4.324951171875 0.88037109375
v 1.451904296875 4.324951171875 0.88037109375
v 2.703369140625 4.324951171875 0.88037109375
v 2.703369140625 4.324951171875 -0.855712890625
v 1.451904296875 4.324951171875 -0.855712890625
v 1.642578125 4.10205078125 0.88037109375
v 2.703369140625 4.10205078125 0.88037109375
v 2.703369140625 4.324951171875 0.88037109375
v 1.451904296875 4.324951171875 0.88037109375
v -1.697021484375 4.045654296875 0.542724609375
v -1.697021484375 4.045654296875 1.025146484375
v -1.697021484375 5.216064453125 1.025146484375
v -1.697021484375 5.216064453125 0.542724609375
v -1.11181640625 4.73388671875 1.025146484375
v -1.11181640625 4.73388671875 0.542724609375
v -1.11181640625 5.216064453125 0.542724609375
v -1.11181640625 5.216064453125 1.025146484375
v -1.697021484375 5.216064453125 1.025146484375
v -1.11181640625 5.216064453125 1.025146484375
v -1.11181640625 5.216064453125 0.542724609375
v -1.697021484375 5.216064453125 0.542724609375
v -1.697021484375 4.045654296875 1.025146484375
v -1.11181640625 4.73388671875 1.025146484375
v -1.11181640625 5.216064453125 1.025146484375
v -1.697021484375 5.216064453125 1.025146484375
v -1.697021484375 4.045654296875 -1.00048828125
v -1.697021484375 4.045654296875 -0.51806640625
v -1.697021484375 5.216064453125 -0.51806640625
v -1.697021484375 5.216064453125 -1.00048828125
v -1.11181640625 4.73388671875 -0.51806640625
v -1.11181640625 4.73388671875 -1.00048828125
v -1.11181640625 5.216064453125 -1.00048828125
v -1.11181640625 5.216064453125 -0.51806640625
v -1.697021484375 5.216064453125 -0.51806640625
v -1.11181640625 5.216064453125 -0.51806640625
v -1.11181640625 5.216064453125 -1.00048828125
v -1.697021484375 5.216064453125 -1.00048828125
v -1.697021484375 4.045654296875 -0.51806640625
v -1.11181640625 4.73388671875 -0.51806640625
v -1.11181640625 5.216064453125 -0.51806640625
v -1.697021484375 5.216064453125 -0.51806640625
v -0.19677734375 4.2763671875 1.565185546875
v -0.098388671875 4.2763671875 1.640380859375
v -0.098388671875 5.414306640625 1.640380859375
v -0.19677734375 5.414306640625 1.565185546875
v -0.35107421875 2.00537109375 1.37939453125
v -0.35107421875 2.00537109375 0.783935546875
v -0.35107421875 0.125 0.783935546875
v -0.35107421875 0.682861328125 1.37939453125
v -1.699951171875 0.125 1.37939453125
v -0.35107421875 0.125 1.37939453125
v -0.35107421875 0.125 0.783935546875
v -1.699951171875 0.125 0.783935546875
v 0.098388671875 4.2763671875 1.640380859375
v 0.19677734375 4.2763671875 1.565185546875
v 0.19677734375 5.414306640625 1.565185546875
v 0.098388671875 5.414306640625 1.640380859375
v -1.699951171875 0.125 0.783935546875
v -1.699951171875 2.00537109375 0.783935546875
v -1.699951171875 2.00537109375 1.37939453125
v -1.699951171875 0.682861328125 1.37939453125
v -0.35107421875 0.125 1.555419921875
v -0.35107421875 0.682861328125 1.555419921875
v -0.35107421875 0.682861328125 1.37939453125
v -0.35107421875 0.125 1.37939453125
v -1.699951171875 0.682861328125 1.555419921875
v -1.699951171875 0.125 1.555419921875
v -1.699951171875 0.125 1.37939453125
v -1.699951171875 0.682861328125 1.37939453125
v -0.35107421875 0.682861328125 1.555419921875
v -0.35107421875 2.00537109375 1.555419921875
v -0.35107421875 2.00537109375 1.37939453125
v -0.35107421875 0.682861328125 1.37939453125
v -1.699951171875 2.00537109375 1.555419921875
v -1.699951171875 0.682861328125 1.555419921875
v -1.699951171875 0.682861328125 1.37939453125
v -1.699951171875 2.00537109375 1.37939453125
v -0.00048828125 0.682861328125 1.555419921875
v -0.35107421875 0.682861328125 1.555419921875
v -0.35107421875 0.125 1.555419921875
v 0.00048828125 0.125 1.555419921875
v -2.340576171875 0.682861328125 0.93994140625
v -2.340576171875 0.682861328125 -0.870849609375
v -2.340576171875 0.125 -0.870849609375
v -2.340576171875 0.125 0.93994140625
v -2.57470703125 2.51708984375 1.84228515625
v -0.234130859375 5.408203125 1.84228515625
v -0.234130859375 5.767333984375 1.84228515625
v -2.7568359375 2.708984375 1.84228515625
v 0.234130859375 5.408203125 1.84228515625
v 2.57470703125 2.51708984375 1.84228515625
v 2.74365234375 2.708984375 1.84228515625
v 0.234130859375 5.767333984375 1.84228515625
v -0.234130859375 5.767333984375 1.84228515625
v -0.234130859375 5.408203125 1.84228515625
v 0.234130859375 5.408203125 1.84228515625
v 0.234130859375 5.767333984375 1.84228515625
v -0.35107421875 2.00537109375 0.783935546875
v -1.699951171875 2.00537109375 0.783935546875
v -1.699951171875 0.125 0.783935546875
v -0.35107421875 0.125 0.783935546875
v 2.340576171875 0.125 1.555419921875
v 2.340576171875 0.125 0.93994140625
v 2.340576171875 0.682861328125 0.93994140625
v 2.340576171875 0.682861328125 1.555419921875
v 1.65576171875 4.06884765625 0.783935546875
v 2.586181640625 2.942138671875 0.783935546875
v 2.586181640625 4.06884765625 0.783935546875
v -0.35107421875 0.125 0.783935546875
v -0.35107421875 0.125 1.37939453125
v -0.35107421875 0.682861328125 1.37939453125
v -1.699951171875 0.682861328125 1.37939453125
v -1.699951171875 0.125 1.37939453125
v -1.699951171875 0.125 0.783935546875
vt 0.765625 -1.390625
vt 0.765625 -1.484375
vt 0.9306640625 -1.390625
vt 0.9306640625 -1.484375
vt 0.984375 -1.390625
vt 0.984375 -1.484375
vt 0.765625 -1.390625
vt 0.765625 -1.484375
vt 0.8935546875 -1.390625
vt 0.8935546875 -1.484375
vt 0.984375 -1.390625
vt 0.984375 -1.484375
vt -0.734375 -0.859375
vt -0.640625 -0.859375
vt -0.640625 -0.515625
vt -0.734375 -0.515625
vt -0.015625 -0.484375
vt -0.015625 -0.390625
vt -0.234375 -0.390625
vt -0.234375 -0.484375
vt -0.234375 -0.390625
vt -0.234375 -0.484375
vt -0.015625 -0.484375
vt -0.015625 -0.390625
vt -0.234375 -0.390625
vt -0.234375 -0.484375
vt -0.015625 -0.484375
vt -0.015625 -0.390625
vt -0.234375 -0.390625
vt -0.234375 -0.484375
vt -0.015625 -0.484375
vt -0.015625 -0.390625
vt 0.015625 -1.359375
vt 0.484375 -1.359375
vt 0.484375 -1.015625
vt 0.015625 -1.015625
vt -0.484375 -0.015625
vt -0.484375 -0.109375
vt -0.390625 -0.109375
vt -0.390625 -0.015625
vt 0.015625 -0.484375
vt 0.484375 -0.484375
vt 0.484375 -0.390625
vt 0.015625 -0.390625
vt -0.484375 -0.015625
vt -0.484375 -0.109375
vt -0.390625 -0.109375
vt -0.390625 -0.015625
vt -0.984375 -0.984375
vt -0.765625 -0.984375
vt -0.765625 -0.515625
vt -0.984375 -0.515625
vt -0.984375 -0.75
vt -0.765625 -0.75
vt -0.765625 -0.515625
vt -0.984375 -0.515625
vt -0.484375 -0.140625
vt -0.484375 -0.359375
vt -0.265625 -0.359375
vt -0.265625 -0.140625
vt -0.984375 -0.984375
vt -0.765625 -0.734375
vt -0.765625 -0.515625
vt -0.984375 -0.515625
vt -0.984375 -0.984375
vt -0.765625 -0.984375
vt -0.765625 -0.515625
vt -0.984375 -0.515625
vt -0.984375 -0.75
vt -0.765625 -0.75
vt -0.765625 -0.515625
vt -0.984375 -0.515625
vt -0.484375 -0.140625
vt -0.484375 -0.359375
vt -0.265625 -0.359375
vt -0.265625 -0.140625
vt -0.984375 -0.984375
vt -0.765625 -0.734375
vt -0.765625 -0.515625
vt -0.984375 -0.515625
vt -0.609375 -0.859375
vt -0.515625 -0.859375
vt -0.515625 -0.515625
vt -0.609375 -0.515625
vt -0.185546875 -0.0419921875
vt -0.205078125 -0.0419921875
vt -0.205078125 -0.0908203125
vt -0.185546875 -0.078125
vt -0.234375 -0.234375
vt -0.015625 -0.234375
vt -0.015625 -0.015625
vt -0.234375 -0.015625
vt -0.609375 -0.859375
vt -0.515625 -0.859375
vt -0.515625 -0.515625
vt -0.609375 -0.515625
vt -0.1826171875 -0.0869140625
vt -0.1826171875 -0.03125
vt -0.205078125 -0.03125
vt -0.205078125 -0.072265625
vt -0.015625 -0.484375
vt -0.015625 -0.390625
vt -0.234375 -0.390625
vt -0.234375 -0.484375
vt -0.234375 -0.390625
vt -0.234375 -0.484375
vt -0.015625 -0.484375
vt -0.015625 -0.390625
vt 0.8154296875 -0.330078125
vt 0.8154296875 -0.294921875
vt 0.8125 -0.294921875
vt 0.8125 -0.330078125
vt 0.7900390625 -0.291015625
vt 0.7900390625 -0.33203125
vt 0.79296875 -0.33203125
vt 0.79296875 -0.291015625
vt 0.984375 -1.390625
vt 0.765625 -1.390625
vt 0.765625 -1.484375
vt 0.984375 -1.484375
vt -0.015625 -0.390625
vt -0.234375 -0.390625
vt -0.234375 -0.484375
vt -0.015625 -0.484375
vt 0.640625 -0.109375
vt 0.734375 -0.109375
vt 0.734375 -0.015625
vt 0.640625 -0.015625
vt 0.640625 -0.015625
vt 0.640625 -0.109375
vt 0.734375 -0.109375
vt 0.734375 -0.015625
vt 0.734375 -0.015625
vt 0.640625 -0.015625
vt 0.640625 -0.109375
vt 0.734375 -0.109375
vt -0.1826171875 -0.037109375
vt -0.2158203125 -0.037109375
vt -0.2158203125 -0.0791015625
vt -0.1826171875 -0.0791015625
vt -0.234375 -0.484375
vt -0.015625 -0.484375
vt -0.015625 -0.390625
vt -0.234375 -0.390625
vt 0.390625 -1.015625
vt 0.484375 -1.359375
vt 0.484375 -1.015625
vt -0.205078125 -0.0908203125
vt -0.185546875 -0.0908203125
vt -0.185546875 -0.078125
vt -0.205078125 -0.072265625
vt -0.205078125 -0.0869140625
vt -0.1826171875 -0.0869140625
vn 0 0 0.998046875
vn 0 0 0.998046875
vn 0 0 0.998046875
vn 0 0 0.998046875
vn 0 0 0.998046875
vn 0 0 0.998046875
vn 0 0 0.998046875
vn 0 0 0.998046875
vn 0 0 0.998046875
vn 0 0 0.998046875
vn 0 0 0.998046875
vn 0 0 0.998046875
vn 0 0 0.998046875
vn 0 0 0.998046875
vn 0 0 0.998046875
vn 0 0 0.998046875
vn -1 0 0
vn -1 0 0
vn -1 0 0
vn -1 0 0
vn 0.998046875 0 0
vn 0.998046875 0 0
vn 0.998046875 0 0
vn 0.998046875 0 0
vn -1 0 0
vn -1 0 0
vn -1 0 0
vn -1 0 0
vn 0.998046875 0 0
vn 0.998046875 0 0
vn 0.998046875 0 0
vn 0.998046875 0 0
vn 0.998046875 0 0
vn 0.998046875 0 0
vn 0.998046875 0 0
vn 0.998046875 0 0
vn 0.998046875 0 0
vn 0.998046875 0 0
vn 0.998046875 0 0
vn 0.998046875 0 0
vn 0 0.998046875 0
vn 0 0.998046875 0
vn 0 0.998046875 0
vn 0 0.998046875 0
vn 0 0 0.998046875
vn 0 0 0.998046875
vn 0 0 0.998046875
vn 0 0 0.998046875
vn -1 0 0
vn -1 0 0
vn -1 0 0
vn -1 0 0
vn 0.998046875 0 0
vn 0.998046875 0 0
vn 0.998046875 0 0
vn 0.998046875 0 0
vn 0 0.998046875 0
vn 0 0.998046875 0
vn 0 0.998046875 0
vn 0 0.998046875 0
vn 0 0 0.998046875
vn 0 0 0.998046875
vn 0 0 0.998046875
vn 0 0 0.998046875
vn -1 0 0
vn -1 0 0
vn -1 0 0
vn -1 0 0
vn 0.998046875 0 0
vn 0.998046875 0 0
vn 0.998046875 0 0
vn 0.998046875 0 0
vn 0 0.998046875 0
vn 0 0.998046875 0
vn 0 0.998046875 0
vn 0 0.998046875 0
vn 0 0 0.998046875
vn 0 0 0.998046875
vn 0 0 0.998046875
vn 0 0 0.998046875
vn -0.607421875 0 0.794921875
vn -0.607421875 0 0.794921875
vn -0.607421875 0 0.794921875
vn -0.607421875 0 0.794921875
vn -1 0 0
vn -1 0 0
vn -1 0 0
vn -1 0 0
vn 0 0.998046875 0
vn 0 0.998046875 0
vn 0 0.998046875 0
vn 0 0.998046875 0
vn 0.607421875 0 0.794921875
vn 0.607421875 0 0.794921875
vn 0.607421875 0 0.794921875
vn 0.607421875 0 0.794921875
vn 0.998046875 0 0
vn 0.998046875 0 0
vn 0.998046875 0 0
vn 0.998046875 0 0
vn -1 0 0
vn -1 0 0
vn -1 0 0
vn -1 0 0
vn 0.998046875 0 0
vn 0.998046875 0 0
vn 0.998046875 0 0
vn 0.998046875 0 0
vn -1 0 0
vn -1 0 0
vn -1 0 0
vn -1 0 0
vn 0.998046875 0 0
vn 0.998046875 0 0
vn 0.998046875 0 0
vn 0.998046875 0 0
vn 0 0 0.998046875
vn 0 0 0.998046875
vn 0 0 0.998046875
vn 0 0 0.998046875
vn -1 0 0
vn -1 0 0
vn -1 0 0
vn -1 0 0
vn 0 0 0.998046875
vn 0 0 0.998046875
vn 0 0 0.998046875
vn 0 0 0.998046875
vn 0 0 0.998046875
vn 0 0 0.998046875
vn 0 0 0.998046875
vn 0 0 0.998046875
vn 0 0 0.998046875
vn 0 0 0.998046875
vn 0 0 0.998046875
vn 0 0 0.998046875
vn 0 0 0.998046875
vn 0 0 0.998046875
vn 0 0 0.998046875
vn 0 0 0.998046875
vn 0.998046875 0 0
vn 0.998046875 0 0
vn 0.998046875 0 0
vn 0.998046875 0 0
vn 0 0 0.998046875
vn 0 0 0.998046875
vn 0 0 0.998046875
vn -1 0 0
vn -1 0 0
vn -1 0 0
vn 0.998046875 0 0
vn 0.998046875 0 0
vn 0.998046875 0 0
f 197/197/197 198/198/198 199/199/199
f 198/198/198 200/200/200 199/199/199
f 199/199/199 200/200/200 201/201/201
f 200/200/200 202/202/202 201/201/201
f 203/203/203 204/204/204 205/205/205
f 204/204/204 206/206/206 205/205/205
f 205/205/205 206/206/206 207/207/207
f 206/206/206 208/208/208 207/207/207
f 209/209/209 210/210/210 211/211/211
f 211/211/211 212/212/212 209/209/209
f 213/213/213 214/214/214 215/215/215
f 215/215/215 216/216/216 213/213/213
f 217/217/217 218/218/218 219/219/219
f 219/219/219 220/220/220 217/217/217
f 221/221/221 222/222/222 223/223/223
f 223/223/223 224/224/224 221/221/221
f 225/225/225 226/226/226 227/227/227
f 227/227/227 228/228/228 225/225/225
f 229/229/229 230/230/230 231/231/231
f 231/231/231 232/232/232 229/229/229
f 233/233/233 234/234/234 235/235/235
f 235/235/235 236/236/236 233/233/233
f 237/237/237 238/238/238 239/239/239
f 239/239/239 240/240/240 237/237/237
f 241/241/241 242/242/242 243/243/243
f 243/243/243 244/244/244 241/241/241
f 245/245/245 246/246/246 247/247/247
f 247/247/247 248/248/248 245/245/245
f 249/249/249 250/250/250 251/251/251
f 251/251/251 252/252/252 249/249/249
f 253/253/253 254/254/254 255/255/255
f 255/255/255 256/256/256 253/253/253
f 257/257/257 258/258/258 259/259/259
f 259/259/259 260/260/260 257/257/257
f 261/261/261 262/262/262 263/263/263
f 263/263/263 264/264/264 261/261/261
f 265/265/265 266/266/266 267/267/267
f 267/267/267 268/268/268 265/265/265
f 269/269/269 270/270/270 271/271/271
f 271/271/271 272/272/272 269/269/269
f 273/273/273 274/274/274 275/275/275
f 275/275/275 276/276/276 273/273/273
f 277/277/277 278/278/278 279/279/279
f 279/279/279 280/280/280 277/277/277
f 281/281/281 282/282/282 283/283/283
f 283/283/283 284/284/284 281/281/281
f 285/285/285 286/286/286 287/287/287
f 287/287/287 288/288/288 285/285/285
f 289/289/289 290/290/290 291/291/291
f 291/291/291 292/292/292 289/289/289
f 293/293/293 294/294/294 295/295/295
f 295/295/295 296/296/296 293/293/293
f 297/297/297 298/298/298 299/299/299
f 299/299/299 300/300/300 297/297/297
f 301/301/301 302/302/302 303/303/303
f 303/303/303 304/304/304 301/301/301
f 305/305/305 306/306/306 307/307/307
f 307/307/307 308/308/308 305/305/305
f 309/309/309 310/310/310 311/311/311
f 311/311/311 312/312/312 309/309/309
f 313/313/313 314/314/314 315/315/315
f 315/315/315 316/316/316 313/313/313
f 317/317/317 318/318/318 319/319/319
f 319/319/319 320/320/320 317/317/317
f 321/321/321 322/322/322 323/323/323
f 323/323/323 324/324/324 321/321/321
f 325/325/325 326/326/326 327/327/327
f 327/327/327 328/328/328 325/325/325
f 329/329/329 330/330/330 331/331/331
f 331/331/331 332/332/332 329/329/329
f 333/333/333 334/334/334 335/335/335
f 335/335/335 336/336/336 333/333/333
f 337/337/337 338/338/338 339/339/339
f 339/339/339 340/340/340 337/337/337
f 341/341/341 342/342/342 343/343/343
f 344/344/344 345/345/345 346/346/346
f 347/347/347 348/348/348 349/349/349
o polygon2
g polygon2
usemtl light
v 2.25 0.71875 0.824951171875
v 2.25 0.71875 -0.862548828125
v 2.25 2.15625 -0.862548828125
v 2.25 2.15625 0.824951171875
v 2.5 3.03125 0.574951171875
v 2.5 3.03125 -0.550048828125
v 2.5 3.96875 -0.550048828125
v 2.5 3.96875 0.574951171875
v 0.1875 0.78125 1.449951171875
v 1.625 0.78125 1.449951171875
v 1.625 2.15625 1.449951171875
v 0.1875 2.15625 1.449951171875
v 0.122314453125 2.7080078125 1.449951171875
v 1.3310546875 2.7080078125 1.449951171875
v 1.3310546875 3.78125 1.449951171875
v 0.122314453125 3.78125 1.449951171875
v -1.34423828125 2.7080078125 1.449951171875
v -0.129150390625 2.7080078125 1.449951171875
v -0.129150390625 3.78125 1.449951171875
v -1.34423828125 3.78125 1.449951171875
v -2.201416015625 0.33740234375 -1.022705078125
v -2.201416015625 0.33740234375 0.995361328125
v -2.201416015625 2.276611328125 0.995361328125
v -2.201416015625 2.276611328125 -1.022705078125
vt -0.484375 -0.609375
vt -0.265625 -0.609375
vt -0.265625 -0.390625
vt -0.484375 -0.390625
vt -0.484375 -0.609375
vt -0.265625 -0.609375
vt -0.265625 -0.390625
vt -0.484375 -0.390625
vt -0.484375 -0.609375
vt -0.265625 -0.609375
vt -0.265625 -0.390625
vt -0.484375 -0.390625
vt -0.484375 -0.609375
vt -0.265625 -0.609375
vt -0.265625 -0.390625
vt -0.484375 -0.390625
vt -0.484375 -0.609375
vt -0.265625 -0.609375
vt -0.265625 -0.390625
vt -0.484375 -0.390625
vt -1 -1
vt 0 -1
vt 0 0
vt -1 0
vn 0 0 0.998046875
vn 0 0 0.998046875
vn 0 0 0.998046875
vn 0 0 0.998046875
vn 0 0 0.998046875
vn 0 0 0.998046875
vn 0 0 0.998046875
vn 0 0 0.998046875
vn 0 0 0.998046875
vn 0 0 0.998046875
vn 0 0 0.998046875
vn 0 0 0.998046875
vn 0 0 0.998046875
vn 0 0 0.998046875
vn 0 0 0.998046875
vn 0 0 0.998046875
vn 0 0 0.998046875
vn 0 0 0.998046875
vn 0 0 0.998046875
vn 0 0 0.998046875
vn 0 0 0.998046875
vn 0 0 0.998046875
vn 0 0 0.998046875
vn 0 0 0.998046875
f 350/350/350 351/351/351 352/352/352
f 352/352/352 353/353/353 350/350/350
f 354/354/354 355/355/355 356/356/356
f 356/356/356 357/357/357 354/354/354
f 358/358/358 359/359/359 360/360/360
f 360/360/360 361/361/361 358/358/358
f 362/362/362 363/363/363 364/364/364
f 364/364/364 365/365/365 362/362/362
f 366/366/366 367/367/367 368/368/368
f 368/368/368 369/369/369 366/366/366
f 370/370/370 371/371/371 372/372/372
f 372/372/372 373/373/373 370/370/370
o polygon3
g polygon3
usemtl h_kage
v 3 0.09375 1.699951171875
v 3 0.09375 -1.237548828125
v 2.5625 0.09375 1.699951171875
v 2.5625 0.09375 -1.800048828125
v -2.5625 0.09375 1.699951171875
v -2.5625 0.09375 -1.800048828125
v 3 0.09375 2.074951171875
v 3 0.09375 1.699951171875
v 2.5625 0.09375 2.074951171875
v 2.5625 0.09375 1.699951171875
v -1.875 0.09375 2.074951171875
v -2.5625 0.09375 1.699951171875
vt 1 0.5
vt 1 1
vt 0.5 0.5
vt 0.5 1
vt 0 0.5
vt 0 1
vt 1 0
vt 1 0.5
vt 0.5 0
vt 0.5 0.5
vt 0 0
vt 0 0.5
vn 0 0.998046875 0
vn 0 0.998046875 0
vn 0 0.998046875 0
vn 0 0.998046875 0
vn 0 0.998046875 0
vn 0 0.998046875 0
vn 0 0.998046875 0
vn 0 0.998046875 0
vn 0 0.998046875 0
vn 0 0.998046875 0
vn 0 0.998046875 0
vn 0 0.998046875 0
f 374/374/374 375/375/375 376/376/376
f 375/375/375 377/377/377 376/376/376
f 376/376/376 377/377/377 378/378/378
f 377/377/377 379/379/379 378/378/378
f 380/380/380 381/381/381 382/382/382
f 381/381/381 383/383/383 382/382/382
f 382/382/382 383/383/383 384/384/384
f 383/383/383 385/385/385 384/384/384
o polygon4
g polygon4
usemtl door
v -0.388565063476563 0.163864135742188 1.43888854980469
v -0.388565063476563 0.163864135742188 1.31388854980469
v -0.388565063476563 1.97636413574219 1.31388854980469
v -0.388565063476563 1.97636413574219 1.43888854980469
v -1.63856506347656 0.163864135742188 1.43888854980469
v -0.388565063476563 0.163864135742188 1.43888854980469
v -0.388565063476563 1.97636413574219 1.43888854980469
v -1.63856506347656 1.97636413574219 1.43888854980469
vt 0.78125 -0.998046875
vt 0.96875 -0.998046875
vt 0.96875 -0.001953125
vt 0.78125 -0.001953125
vt 0.03125 -0.998046875
vt 0.71875 -0.998046875
vt 0.71875 -0.001953125
vt 0.03125 -0.001953125
vn 0.998046875 0 0
vn 0.998046875 0 0
vn 0.998046875 0 0
vn 0.998046875 0 0
vn 0 0 0.998046875
vn 0 0 0.998046875
vn 0 0 0.998046875
vn 0 0 0.998046875
f 386/386/386 387/387/387 388/388/388
f 388/388/388 389/389/389 386/386/386
f 390/390/390 391/391/391 392/392/392
f 392/392/392 393/393/393 390/390/390
