mtllib Bush.mtl
o map
v 0.0 0.1 -0.1
v 1.0 0.1 -0.1
v 1.0 1.617172 -1.575095
v 0.0 1.617172 -1.575095
vt 0.751404 0.481368
vt 1.000502 0.481368
vt 1.000502 1.01793
vt 0.751404 1.01793
vn 0.0 0.6971 0.717
usemtl Decorations_2
s off
f 1/1/1 2/2/1 3/3/1 4/4/1
