mtllib cliff03_tall_grass_7.mtl
o map
v 1.0 0.0 -0.0
v 1.0 0.0 -1.0
v 0.0 0.0 -1.0
v 0.0 0.0 -0.0
v 0.75 0.0 -0.25
v 0.0 1.0 -1.0
v 0.0 0.099479 -0.21107101
v 0.788929 0.099479 -1.0
v 0.576813 0.1 -0.42318702
vt 0.5 0.025
vt 0.5 0.24437
vt 0.102159 0.219102
vt 0.0 0.025
vt 1.0 0.025
vt 0.905928 0.203736
vt 0.5 0.975
vt 0.0 0.0
vt 1.0 0.0
vt 1.0 1.0
vt 0.0 1.0
vn 0.278 0.9195 0.278
vn 0.0555 0.8578 0.511
vn -0.4315 0.7427 0.512
vn -0.0883 0.9066 0.4127
vn 0.4127 0.9066 -0.0883
vn 0.4682 0.8835 0.0168
vn 0.0579 0.9966 0.058
vn 0.0 1.0 0.0
usemtl grass02
s off
f 1/8/8 2/9/8 3/10/8 4/11/8
usemtl MountainGrassRock
s off
f 5/1/1 9/2/2 7/3/3 4/4/4
f 5/1/1 2/5/5 8/6/6 9/2/2
f 7/3/3 9/2/2 6/7/7
f 9/2/2 8/6/6 6/7/7
