mtllib fence_10.mtl
o map
v 0.5 0.375 -1.0
v 1.0 0.375 -1.0
v 1.0 0.375 -0.375
v 0.5 0.375 -0.375
v 1.0 0.541016 -0.541016
v 1.0 0.707032 -0.707032
v 0.5 0.707032 -0.707032
v 1.0 0.1875 -0.1875
v 0.5 0.0 -0.0
v 1.0 0.0 -0.0
vt 0.774871 0.3125
vt 0.699871 0.3125
vt 0.699871 0.4375
vt 0.774871 0.4375
vt 0.100418 0.191298
vt 0.100418 0.25
vt 4.18E-4 0.25
vt 4.18E-4 0.132597
vt 0.100418 0.066298
vt 0.100418 0.132597
vt 4.18E-4 0.0
vt 0.100418 0.0
vn 0.0 1.0 -0.0
vn -0.0 0.7071 0.7071
usemtl Decorations_1
s off
f 1/1/1 4/2/1 3/3/1 2/4/1
f 5/5/2 6/6/2 7/7/2 4/8/2
f 8/9/2 3/10/2 4/8/2 9/11/2
f 10/12/2 8/9/2 9/11/2
f 3/10/2 5/5/2 4/8/2
