mtllib fence_3.mtl
o map
v 0.5 0.375 -0.375
v 1.0 0.375 -0.375
v 0.0 0.707032 -0.707032
v 0.0 0.375 -0.375
v 1.0 0.0 0.0
v 0.0 0.0 0.0
v 1.0 0.707032 -0.707032
v 0.0 0.375 -1.0
v 0.5 0.375 -1.0
vt 0.10026 0.132597
vt 0.20026 0.132597
vt 2.6E-4 0.25
vt 2.6E-4 0.132597
vt 0.20026 0.0
vt 2.6E-4 0.0
vt 0.20026 0.25
vt 0.37526 0.3125
vt 0.50026 0.3125
vt 0.50026 0.4375
vt 0.37526 0.4375
vn 0.0 0.7071 0.7071
vn 0.0 1.0 0.0
usemtl Decorations_1
s off
f 1/1/1 2/2/1 3/3/1 4/4/1
f 1/1/1 4/4/1 5/5/1 2/2/1
f 8/8/2 4/9/2 1/10/2 9/11/2
f 6/6/1 5/5/1 4/4/1
f 7/7/1 3/3/1 2/2/1
