mtllib Flower_high_2.mtl
o map
v 0.5 0.1 -0.6
v 0.5 1.575095 -2.117172
v -0.5 1.575095 -2.117172
v -0.5 0.1 -0.6
vt 1.000502 -0.018632
vt 1.000502 1.01793
vt 0.001404 1.01793
vt 0.001404 -0.018632
vn -0.0 0.717 0.6971
usemtl Flower_anim_1
s off
f 1/1/1 2/2/1 3/3/1 4/4/1
