mtllib staris_2x2_3.mtl
o map
v 1.0041671 0.320833 -0.25
v 0.00416708 0.320833 -0.25
v 0.00416708 1.008333 -0.25
v 0.31666708 1.008333 -0.25
v 1.0041671 0.008333 -0.0
v 1.0041671 0.320833 -0.0
v 0.00416708 0.320833 -0.0
v 0.00416708 0.008333 -0.0
v 0.31666708 1.008333 -0.0
v 1.0041671 0.320833 -0.0
v 1.0041671 0.320833 -0.25
v 0.31666708 1.008333 -0.25
v 1.0041671 0.008333 -0.25
v 1.0041671 0.320833 -0.25
v 1.0041671 0.320833 -0.0
v 1.0041671 0.008333 -0.0
v 1.0041671 0.320833 -0.25
v 1.0041671 0.008333 -0.25
v 0.00416708 0.008333 -0.25
v 0.00416708 0.320833 -0.25
v 0.31666708 1.008333 -0.0
v 0.31666708 1.008333 -0.25
v 0.00416708 1.008333 -0.25
v 0.00416708 1.008333 -0.0
v 1.0041671 0.320833 -0.0
v 0.31666708 1.008333 -0.0
v 0.00416708 1.008333 -0.0
v 0.00416708 0.320833 -0.0
v 1.0041671 0.320833 -2.0
v 0.00416708 0.320833 -2.0
v 0.00416708 1.008333 -2.0
v 0.31666708 1.008333 -2.0
v 1.0041671 0.008333 -1.75
v 1.0041671 0.320833 -1.75
v 0.00416708 0.320833 -1.75
v 0.00416708 0.008333 -1.75
v 0.31666708 1.008333 -1.75
v 1.0041671 0.320833 -1.75
v 1.0041671 0.320833 -2.0
v 0.31666708 1.008333 -2.0
v 1.0041671 0.008333 -2.0
v 1.0041671 0.320833 -2.0
v 1.0041671 0.320833 -1.75
v 1.0041671 0.008333 -1.75
v 1.0041671 0.320833 -2.0
v 1.0041671 0.008333 -2.0
v 0.00416708 0.008333 -2.0
v 0.00416708 0.320833 -2.0
v 0.31666708 1.008333 -1.75
v 0.31666708 1.008333 -2.0
v 0.00416708 1.008333 -2.0
v 0.00416708 1.008333 -1.75
v 1.0041671 0.320833 -1.75
v 0.31666708 1.008333 -1.75
v 0.00416708 1.008333 -1.75
v 0.00416708 0.320833 -1.75
v 1.0041671 0.008333 -0.25
v 1.0041671 0.008333 -1.75
v 0.00416708 1.008333 -1.75
v 0.00416708 1.008333 -0.25
vt 0.078125 -0.5
vt 0.078125 -0.484375
vt 0.109375 -0.484375
vt 0.109375 -0.5
vt 0.0 -0.75
vt 0.046875 -0.75
vt 0.046875 -0.375
vt 0.0 -0.375
vt 0.046875 -0.75
vt 0.0 -0.75
vt 0.0 -1.0
vt 0.046875 -1.0
vt 0.109375 -0.515625
vt 0.078125 -0.515625
vt 0.078125 -0.5
vt 0.109375 -0.5
vt 0.0 -0.03125
vt 0.0 -0.375
vt 0.046875 -0.375
vt 0.046875 -0.03125
vt 0.109375 -0.515625
vt 0.078125 -0.515625
vt 0.078125 -0.5
vt 0.109375 -0.5
vt 0.078125 -0.5
vt 0.078125 -0.484375
vt 0.109375 -0.484375
vt 0.109375 -0.5
vt 0.078125 -0.5
vt 0.078125 -0.484375
vt 0.109375 -0.484375
vt 0.109375 -0.5
vt 0.0 -0.75
vt 0.046875 -0.75
vt 0.046875 -0.375
vt 0.0 -0.375
vt 0.046875 -0.75
vt 0.0 -0.75
vt 0.0 -1.0
vt 0.046875 -1.0
vt 0.109375 -0.515625
vt 0.078125 -0.515625
vt 0.078125 -0.5
vt 0.109375 -0.5
vt 0.0 -0.03125
vt 0.0 -0.375
vt 0.046875 -0.375
vt 0.046875 -0.03125
vt 0.9375 0.0
vt 0.0625 0.0
vt 0.0625 -1.0
vt 0.9375 -1.0
vt 0.078125 -0.5
vt 0.078125 -0.484375
vt 0.109375 -0.484375
vt 0.109375 -0.5
vt 0.109375 -0.515625
vt 0.078125 -0.515625
vt 0.078125 -0.5
vt 0.109375 -0.5
vn -0.0 0.0 -1.0
vn 0.6618 0.7497 -0.0
vn 1.0 -0.0 -0.0
vn -0.0 1.0 -0.0
vn -0.0 0.0 1.0
usemtl stairs2x2
s off
f 11/5/2 12/6/2 9/7/2 10/8/2
f 15/9/3 16/10/3 13/11/3 14/12/3
f 19/13/1 20/14/1 17/15/1 18/16/1
f 23/17/4 24/18/4 21/19/4 22/20/4
f 35/21/5 36/22/5 33/23/5 34/24/5
f 39/33/2 40/34/2 37/35/2 38/36/2
f 43/37/3 44/38/3 41/39/3 42/40/3
f 47/41/1 48/42/1 45/43/1 46/44/1
f 51/45/4 52/46/4 49/47/4 50/48/4
f 59/49/2 60/50/2 57/51/2 58/52/2
f 7/57/5 8/58/5 5/59/5 6/60/5
f 1/1/1 2/2/1 3/3/1
f 3/3/1 4/4/1 1/1/1
f 25/25/5 26/26/5 27/27/5
f 27/27/5 28/28/5 25/25/5
f 29/29/1 30/30/1 31/31/1
f 31/31/1 32/32/1 29/29/1
f 53/53/5 54/54/5 55/55/5
f 55/55/5 56/56/5 53/53/5
