mtllib stone02.mtl
o map
v 0.0 0.0 -0.0
v 1.0 0.0 -0.0
v 1.0 0.707032 -0.707031
v 0.0 0.707032 -0.707031
vt 1.0 0.25
vt 0.8 0.25
vt 0.8 0.0
vt 1.0 0.0
vn -0.0 0.7497 0.6618
usemtl Decorations_1
s off
f 3/1/1 4/2/1 1/3/1 2/4/1
