mtllib Tall_grass_r.mtl
o map
v 0.5 0.125001 -1.0
v 0.0 0.125001 -1.0
v 0.0 0.125001 -0.0
v 0.5 0.125001 -0.0
vt 1.0 2.0
vt 0.5 2.0
vt 0.5 1.0
vt 1.0 1.0
vn 0.0 1.0 -0.0
usemtl egrass_v
s off
f 1/1/1 2/2/1 3/3/1 4/4/1
