mtllib Tall_grass_t.mtl
o map
v 1.0 0.125001 -0.5
v 0.0 0.125001 -0.5
v 0.0 0.125001 -0.0
v 1.0 0.125001 -0.0
vt -3.0 0.0
vt -4.0 0.0
vt -4.0 -0.5
vt -3.0 -0.5
vn 0.0 1.0 -0.0
usemtl egrass_u
s off
f 1/1/1 2/2/1 3/3/1 4/4/1
